<?xml version="1.0" encoding="UTF-8"?>
<svg width="1392px" height="320px" viewBox="0 0 1392 320" version="1.1" xmlns="http://www.w3.org/2000/svg" xmlns:xlink="http://www.w3.org/1999/xlink">
    <!-- Generator: Sketch 46.2 (44496) - http://www.bohemiancoding.com/sketch -->
    <title>logo_horizontal_signature</title>
    <desc>Created with Sketch.</desc>
    <defs></defs>
    <g id="result" stroke="none" stroke-width="1" fill="none" fill-rule="evenodd">
        <g id="logo_horizontal_signature">
            <g id="Group-2" transform="translate(0.000000, -2.000000)">
                <g id="Group" transform="translate(820.000000, 54.000000)" fill="#000000">
                    <polygon id="Path" points="34.8278282 2.58027778 52.6299755 29.5497222 70.2897055 2.58027778 103.045656 2.58027778 70.2897055 50.1316667 105.894 102.083333 72.7107975 102.083333 52.6299755 72.7008333 32.6915706 102.083333 0.220453988 102.083333 35.6823313 51.4091667 2.49912883 2.58027778"></polygon>
                    <path d="M200.457055,82.7788889 L158.301571,82.7788889 L150.468626,102.083333 L121.700356,102.083333 L165.707264,2.72222222 L193.478613,2.72222222 L237.627939,102.083333 L208.29,102.083333 L200.457055,82.7788889 Z M192.196859,62.055 L179.379313,30.2594444 L166.561767,62.055 L192.196859,62.055 Z" id="Combined-Shape"></path>
                    <path d="M350.826086,2.72222222 L309.525104,79.5141667 C305.157622,87.7469856 299.817032,93.9924787 293.503172,98.2508333 C287.189312,102.509188 280.282148,104.638333 272.781472,104.638333 C267.274647,104.638333 261.388129,103.40816 255.121742,100.947778 L261.81535,80.2238889 C265.708105,81.3594501 269.03114,81.9272222 271.784552,81.9272222 C274.537965,81.9272222 276.982768,81.3121358 279.119037,80.0819444 C281.255305,78.8517531 283.22539,76.9118651 285.02935,74.2622222 L246.291877,2.72222222 L276.057067,2.72222222 L299.271067,50.6994444 L323.339571,2.72222222 L350.826086,2.72222222 Z" id="Path"></path>
                    <path d="M381.462681,97.4701389 C373.154971,93.0698391 366.627582,86.9426319 361.880319,79.0883333 C357.133056,71.2340348 354.75946,62.3389386 354.75946,52.4027778 C354.75946,42.466617 357.133056,33.5715208 361.880319,25.7172222 C366.627582,17.8629237 373.154971,11.7357164 381.462681,7.33541667 C389.770391,2.93511689 399.146095,0.735 409.590074,0.735 C418.704819,0.735 426.91746,2.34368762 434.228245,5.56111111 C441.53903,8.77853461 447.615436,13.4153401 452.457644,19.4716667 L434.51308,35.6533333 C428.056802,27.8936649 420.223936,24.0138889 411.014245,24.0138889 C405.602366,24.0138889 400.783966,25.1967474 396.558902,27.5625 C392.333838,29.9282526 389.058275,33.2639137 386.732117,37.5695833 C384.405958,41.875253 383.242896,46.8196017 383.242896,52.4027778 C383.242896,57.9859538 384.405958,62.9303025 386.732117,67.2359722 C389.058275,71.5416419 392.333838,74.877303 396.558902,77.2430556 C400.783966,79.6088081 405.602366,80.7916667 411.014245,80.7916667 C420.223936,80.7916667 428.056802,76.9118907 434.51308,69.1522222 L452.457644,85.3338889 C447.615436,91.3902155 441.53903,96.027021 434.228245,99.2444444 C426.91746,102.461868 418.704819,104.070556 409.590074,104.070556 C399.146095,104.070556 389.770391,101.870439 381.462681,97.4701389 Z" id="Path"></path>
                </g>
                <polygon id="Rectangle-5" fill="#FFD634" points="0 0 862 0 722 200 0 200"></polygon>
                <path d="M236.113853,137.165144 C227.238562,144.801822 214.400433,149.094425 197.59908,150.043081 L197.59908,161 L171.827642,161 L171.827642,150.043081 C155.02629,148.809828 142.188161,144.446078 133.31287,136.951697 C124.437579,129.457317 120,119.211988 120,106.215405 C120,93.218821 124.413848,82.9497766 133.241678,75.4079634 C142.069507,67.8661503 154.931367,63.4786833 171.827642,62.2454308 L171.827642,52 L197.59908,52 L197.59908,62.2454308 C214.400433,63.3838177 227.238562,67.7238526 236.113853,75.2656658 C244.989144,82.807479 249.426723,93.1239554 249.426723,106.215405 C249.426723,119.211988 244.989144,129.528465 236.113853,137.165144 Z M216.180144,121.298956 C220.119444,117.694064 222.089065,112.618832 222.089065,106.073107 C222.089065,99.5273824 220.071984,94.4995824 216.037761,90.9895561 C212.003537,87.4795299 205.857372,85.2502223 197.59908,84.3015666 L197.59908,128.129243 C206.047218,127.180587 212.240844,124.903847 216.180144,121.298956 Z M153.460154,121.156658 C157.541838,124.666684 163.664273,126.943424 171.827642,127.986945 L171.827642,84.3015666 C163.284582,85.2502223 157.067225,87.4795299 153.175387,90.9895561 C149.283548,94.4995824 147.337658,99.5748145 147.337658,106.215405 C147.337658,112.666264 149.378469,117.646632 153.460154,121.156658 Z M341.652906,61.1781984 C348.297509,64.166464 353.423268,68.4353508 357.030338,73.9849869 C360.637409,79.534623 362.440917,86.0565335 362.440917,93.5509138 C362.440917,101.045294 360.637409,107.543489 357.030338,113.045692 C353.423268,118.547895 348.297509,122.793066 341.652906,125.781332 C335.008303,128.769597 327.177282,130.263708 318.159607,130.263708 L300.788803,130.263708 L300.788803,156.304178 L272.596844,156.304178 L272.596844,56.6958225 L318.159607,56.6958225 C327.177282,56.6958225 335.008303,58.1899328 341.652906,61.1781984 Z M329.550297,104.294386 C332.492907,101.780449 333.96419,98.199327 333.96419,93.5509138 C333.96419,88.9025007 332.492907,85.2976629 329.550297,82.7362924 C326.607687,80.1749219 322.2413,78.8942559 316.451003,78.8942559 L300.788803,78.8942559 L300.788803,108.065274 L316.451003,108.065274 C322.2413,108.065274 326.607687,106.808324 329.550297,104.294386 Z M408.615938,151.608355 C400.215262,147.149673 393.61822,140.983503 388.824613,133.109661 C384.031007,125.235818 381.63424,116.36602 381.63424,106.5 C381.63424,96.6339803 384.031007,87.7641821 388.824613,79.8903394 C393.61822,72.0164967 400.215262,65.8503269 408.615938,61.3916449 C417.016615,56.9329629 426.485032,54.7036554 437.021473,54.7036554 C447.557915,54.7036554 457.026332,56.9329629 465.427008,61.3916449 C473.827684,65.8503269 480.424727,72.0164967 485.218333,79.8903394 C490.011939,87.7641821 492.408707,96.6339803 492.408707,106.5 C492.408707,116.36602 490.011939,125.235818 485.218333,133.109661 C480.424727,140.983503 473.827684,147.149673 465.427008,151.608355 C457.026332,156.067037 447.557915,158.296345 437.021473,158.296345 C426.485032,158.296345 417.016615,156.067037 408.615938,151.608355 Z M450.690302,131.402089 C454.771987,129.030449 457.999317,125.686488 460.372389,121.370104 C462.745462,117.053721 463.93198,112.097069 463.93198,106.5 C463.93198,100.902931 462.745462,95.9462792 460.372389,91.6298956 C457.999317,87.3135119 454.771987,83.9695506 450.690302,81.5979112 C446.608618,79.2262719 442.052387,78.04047 437.021473,78.04047 C431.99056,78.04047 427.434329,79.2262719 423.352645,81.5979112 C419.27096,83.9695506 416.04363,87.3135119 413.670557,91.6298956 C411.297485,95.9462792 410.110967,100.902931 410.110967,106.5 C410.110967,112.097069 411.297485,117.053721 413.670557,121.370104 C416.04363,125.686488 419.27096,129.030449 423.352645,131.402089 C427.434329,133.773728 431.99056,134.95953 437.021473,134.95953 C442.052387,134.95953 446.608618,133.773728 450.690302,131.402089 Z M611.833479,56.6958225 L611.833479,156.304178 L583.641519,156.304178 L583.641519,117.456919 L545.197938,117.456919 L545.197938,156.304178 L517.005979,156.304178 L517.005979,56.6958225 L545.197938,56.6958225 L545.197938,94.1201044 L583.641519,94.1201044 L583.641519,56.6958225 L611.833479,56.6958225 Z M723,79.0365535 L692.529903,79.0365535 L692.529903,156.304178 L664.765094,156.304178 L664.765094,79.0365535 L634.152613,79.0365535 L634.152613,56.6958225 L723,56.6958225 L723,79.0365535 Z" id="ФронтХаус" fill="#000000"></path>
            </g>
            <path d="M146.418,265.972 L140.028,265.972 L140.028,285 L126.041,285 L126.041,235.3 L140.028,235.3 L140.028,254.612 L146.773,254.612 L158.63,235.3 L173.398,235.3 L157.849,259.298 L173.54,285 L157.707,285 L146.418,265.972 Z M214.519,237.5365 C217.83235,239.027507 220.388324,241.157486 222.187,243.9265 C223.985676,246.695514 224.885,249.949648 224.885,253.689 C224.885,257.428352 223.985676,260.670653 222.187,263.416 C220.388324,266.161347 217.83235,268.279493 214.519,269.7705 C211.20565,271.261507 207.300689,272.007 202.804,272.007 L194.142,272.007 L194.142,285 L180.084,285 L180.084,235.3 L202.804,235.3 C207.300689,235.3 211.20565,236.045493 214.519,237.5365 Z M208.484,259.0495 C209.951341,257.79516 210.685,256.008345 210.685,253.689 C210.685,251.369655 209.951341,249.571006 208.484,248.293 C207.016659,247.014994 204.839348,246.376 201.952,246.376 L194.142,246.376 L194.142,260.931 L201.952,260.931 C204.839348,260.931 207.016659,260.30384 208.484,259.0495 Z M244.1735,282.657 C239.984479,280.432322 236.694845,277.355686 234.3045,273.427 C231.914155,269.498314 230.719,265.072691 230.719,260.15 C230.719,255.227309 231.914155,250.801686 234.3045,246.873 C236.694845,242.944314 239.984479,239.867678 244.1735,237.643 C248.362521,235.418322 253.083974,234.306 258.338,234.306 C263.592026,234.306 268.313479,235.418322 272.5025,237.643 C276.691521,239.867678 279.981155,242.944314 282.3715,246.873 C284.761845,250.801686 285.957,255.227309 285.957,260.15 C285.957,265.072691 284.761845,269.498314 282.3715,273.427 C279.981155,277.355686 276.691521,280.432322 272.5025,282.657 C268.313479,284.881678 263.592026,285.994 258.338,285.994 C253.083974,285.994 248.362521,284.881678 244.1735,282.657 Z M265.154,272.575 C267.189344,271.391661 268.798661,269.723177 269.982,267.5695 C271.165339,265.415823 271.757,262.942681 271.757,260.15 C271.757,257.357319 271.165339,254.884177 269.982,252.7305 C268.798661,250.576823 267.189344,248.908339 265.154,247.725 C263.118656,246.541661 260.846679,245.95 258.338,245.95 C255.829321,245.95 253.557344,246.541661 251.522,247.725 C249.486656,248.908339 247.877339,250.576823 246.694,252.7305 C245.510661,254.884177 244.919,257.357319 244.919,260.15 C244.919,262.942681 245.510661,265.415823 246.694,267.5695 C247.877339,269.723177 249.486656,271.391661 251.522,272.575 C253.557344,273.758339 255.829321,274.35 258.338,274.35 C260.846679,274.35 263.118656,273.758339 265.154,272.575 Z M338.4025,263.416 C339.940841,265.40401 340.71,267.865319 340.71,270.8 C340.71,275.202022 338.994184,278.669154 335.5625,281.2015 C332.130816,283.733846 327.267365,285 320.972,285 L295.483,285 L295.483,235.3 L319.623,235.3 C325.58703,235.3 330.213817,236.424155 333.5035,238.6725 C336.793183,240.920845 338.438,244.103979 338.438,248.222 C338.438,250.636012 337.858172,252.765991 336.6985,254.612 C335.538828,256.458009 333.870344,257.925328 331.693,259.014 C334.627681,259.960671 336.864159,261.42799 338.4025,263.416 Z M309.328,255.18 L318.274,255.18 C322.25002,255.18 324.238,253.547016 324.238,250.281 C324.238,247.014984 322.25002,245.382 318.274,245.382 L309.328,245.382 L309.328,255.18 Z M326.51,269.735 C326.51,266.374317 324.474687,264.694 320.404,264.694 L309.328,264.694 L309.328,274.918 L320.404,274.918 C324.474687,274.918 326.51,273.190351 326.51,269.735 Z M396.67,235.3 L396.67,285 L382.825,285 L382.825,246.447 L368.554,246.447 L368.27,254.541 C368.033332,261.641035 367.453505,267.415644 366.5305,271.865 C365.607495,276.314356 364.033678,279.757821 361.809,282.1955 C359.584322,284.633179 356.436687,285.852 352.366,285.852 C350.472657,285.852 348.342679,285.568003 345.976,285 L346.757,273.498 C347.372336,273.640001 348.01133,273.711 348.674,273.711 C350.520009,273.711 351.939995,272.977341 352.934,271.51 C353.928005,270.042659 354.637998,267.995513 355.064,265.3685 C355.490002,262.741487 355.773999,259.321688 355.916,255.109 L356.626,235.3 L396.67,235.3 Z M450.926,235.3 L450.926,285 L437.081,285 L437.081,272.504 L429.413,272.504 L421.248,285 L406.48,285 L416.562,270.445 C413.24865,268.977659 410.716342,266.859514 408.965,264.0905 C407.213658,261.321486 406.338,258.020019 406.338,254.186 C406.338,250.304647 407.237324,246.944014 409.036,244.104 C410.834676,241.263986 413.414317,239.086674 416.775,237.572 C420.135683,236.057326 424.064311,235.3 428.561,235.3 L450.926,235.3 Z M420.538,253.973 C420.538,256.481679 421.23616,258.386827 422.6325,259.6885 C424.02884,260.990173 426.05232,261.641 428.703,261.641 L437.081,261.641 L437.081,246.376 L428.845,246.376 C423.306972,246.376 420.538,248.908308 420.538,253.973 Z M631.4445,275.4505 C627.018811,279.260852 620.617042,281.402664 612.239,281.876 L612.239,287.343 L599.388,287.343 L599.388,281.876 C591.009958,281.260664 584.608189,279.083352 580.1825,275.344 C575.756811,271.604648 573.544,266.492699 573.544,260.008 C573.544,253.523301 575.744978,248.399519 580.147,244.6365 C584.549022,240.873481 590.962625,238.684336 599.388,238.069 L599.388,232.957 L612.239,232.957 L612.239,238.069 C620.617042,238.637003 627.018811,240.802481 631.4445,244.5655 C635.870189,248.328519 638.083,253.475967 638.083,260.008 C638.083,266.492699 635.870189,271.640148 631.4445,275.4505 Z M621.5045,267.534 C623.468843,265.735324 624.451,263.203016 624.451,259.937 C624.451,256.670984 623.445177,254.162342 621.4335,252.411 C619.421823,250.659658 616.357021,249.547336 612.239,249.074 L612.239,270.942 C616.451688,270.468664 619.540157,269.332676 621.5045,267.534 Z M590.229,267.463 C592.264344,269.214342 595.317313,270.350331 599.388,270.871 L599.388,249.074 C595.127979,249.547336 592.027676,250.659658 590.087,252.411 C588.146324,254.162342 587.176,256.69465 587.176,260.008 C587.176,263.226683 588.193656,265.711658 590.229,267.463 Z M680.979,275.344 L659.963,275.344 L656.058,285 L641.716,285 L663.655,235.3 L677.5,235.3 L699.51,285 L684.884,285 L680.979,275.344 Z M676.861,264.978 L670.471,249.074 L664.081,264.978 L676.861,264.978 Z M716.6685,282.6925 C712.526813,280.491489 709.272678,277.426686 706.906,273.498 C704.539321,269.569314 703.356,265.120025 703.356,260.15 C703.356,255.179975 704.539321,250.730686 706.906,246.802 C709.272678,242.873314 712.526813,239.808511 716.6685,237.6075 C720.810187,235.406489 725.484307,234.306 730.691,234.306 C735.235023,234.306 739.329315,235.110659 742.974,236.72 C746.618685,238.329341 749.647988,240.648652 752.062,243.678 L743.116,251.772 C739.897317,247.890647 735.992356,245.95 731.401,245.95 C728.702987,245.95 726.300844,246.541661 724.1945,247.725 C722.088156,248.908339 720.455172,250.576823 719.2955,252.7305 C718.135828,254.884177 717.556,257.357319 717.556,260.15 C717.556,262.942681 718.135828,265.415823 719.2955,267.5695 C720.455172,269.723177 722.088156,271.391661 724.1945,272.575 C726.300844,273.758339 728.702987,274.35 731.401,274.35 C735.992356,274.35 739.897317,272.409353 743.116,268.528 L752.062,276.622 C749.647988,279.651348 746.618685,281.970659 742.974,283.58 C739.329315,285.189341 735.235023,285.994 730.691,285.994 C725.484307,285.994 720.810187,284.893511 716.6685,282.6925 Z M793.822,275.344 L772.806,275.344 L768.901,285 L754.559,285 L776.498,235.3 L790.343,235.3 L812.353,285 L797.727,285 L793.822,275.344 Z M789.704,264.978 L783.314,249.074 L776.924,264.978 L789.704,264.978 Z M873.993,273.853 L873.993,295.011 L861.142,295.011 L861.142,285 L829.334,285 L829.334,295.011 L816.412,295.011 L816.412,273.853 L818.187,273.853 C821.121681,273.805666 823.192494,271.79402 824.3995,267.818 C825.606506,263.84198 826.351999,258.114704 826.636,250.636 L827.204,235.3 L867.248,235.3 L867.248,273.853 L873.993,273.853 Z M837.641,265.333 C836.97833,269.025018 835.960674,271.86499 834.588,273.853 L853.403,273.853 L853.403,246.447 L839.132,246.447 L838.919,251.843 C838.729666,257.14436 838.30367,261.640982 837.641,265.333 Z M1033.247,263.842 C1034.80901,265.924677 1035.59,268.314987 1035.59,271.013 C1035.59,274.089682 1034.54868,276.763989 1032.466,279.036 C1030.38332,281.308011 1027.56702,283.047494 1024.017,284.2545 C1020.46698,285.461506 1016.56202,286.065 1012.302,286.065 C1008.94132,286.065 1005.52152,285.662671 1002.0425,284.858 C998.563483,284.053329 995.238349,282.846341 992.067,281.237 L996.256,271.439 C998.480678,272.575006 1000.85915,273.43883 1003.3915,274.0305 C1005.92385,274.62217 1008.37332,274.918 1010.74,274.918 C1013.86402,274.918 1016.41999,274.409172 1018.408,273.3915 C1020.39601,272.373828 1021.39,270.942009 1021.39,269.096 C1021.39,267.628659 1020.77467,266.540004 1019.544,265.83 C1018.31333,265.119996 1016.65668,264.765 1014.574,264.765 L1001.865,264.765 L1001.865,254.47 L1013.438,254.47 C1015.33134,254.47 1016.79866,254.091337 1017.84,253.334 C1018.88134,252.576663 1019.402,251.559006 1019.402,250.281 C1019.402,248.671659 1018.59734,247.429171 1016.988,246.5535 C1015.37866,245.677829 1013.29601,245.24 1010.74,245.24 C1008.65732,245.24 1006.45634,245.53583 1004.137,246.1275 C1001.81766,246.71917 999.616677,247.559328 997.534,248.648 L993.416,237.998 C998.71736,235.441987 1004.5393,234.164 1010.882,234.164 C1014.95269,234.164 1018.72748,234.743828 1022.2065,235.9035 C1025.68552,237.063172 1028.45449,238.731656 1030.5135,240.909 C1032.57251,243.086344 1033.602,245.665985 1033.602,248.648 C1033.602,250.967345 1032.99851,253.038158 1031.7915,254.8605 C1030.58449,256.682842 1028.91601,258.114661 1026.786,259.156 C1029.53135,260.197339 1031.68499,261.759323 1033.247,263.842 Z M1079.48,275.344 L1058.464,275.344 L1054.559,285 L1040.217,285 L1062.156,235.3 L1076.001,235.3 L1098.011,285 L1083.385,285 L1079.48,275.344 Z M1075.362,264.978 L1068.972,249.074 L1062.582,264.978 L1075.362,264.978 Z M1105.691,235.3 L1147.226,235.3 L1147.226,246.163 L1119.536,246.163 L1119.536,254.186 L1132.387,254.186 C1138.39836,254.186 1143.01332,255.463987 1146.232,258.02 C1149.45068,260.576013 1151.06,264.244309 1151.06,269.025 C1151.06,274.042358 1149.26135,277.959153 1145.664,280.7755 C1142.06665,283.591847 1137.0257,285 1130.541,285 L1105.691,285 L1105.691,235.3 Z M1129.618,274.918 C1131.98468,274.918 1133.78333,274.444671 1135.014,273.498 C1136.24467,272.551329 1136.86,271.202342 1136.86,269.451 C1136.86,265.948316 1134.44602,264.197 1129.618,264.197 L1119.536,264.197 L1119.536,274.918 L1129.618,274.918 Z M1170.5615,282.657 C1166.37248,280.432322 1163.08285,277.355686 1160.6925,273.427 C1158.30215,269.498314 1157.107,265.072691 1157.107,260.15 C1157.107,255.227309 1158.30215,250.801686 1160.6925,246.873 C1163.08285,242.944314 1166.37248,239.867678 1170.5615,237.643 C1174.75052,235.418322 1179.47197,234.306 1184.726,234.306 C1189.98003,234.306 1194.70148,235.418322 1198.8905,237.643 C1203.07952,239.867678 1206.36915,242.944314 1208.7595,246.873 C1211.14985,250.801686 1212.345,255.227309 1212.345,260.15 C1212.345,265.072691 1211.14985,269.498314 1208.7595,273.427 C1206.36915,277.355686 1203.07952,280.432322 1198.8905,282.657 C1194.70148,284.881678 1189.98003,285.994 1184.726,285.994 C1179.47197,285.994 1174.75052,284.881678 1170.5615,282.657 Z M1191.542,272.575 C1193.57734,271.391661 1195.18666,269.723177 1196.37,267.5695 C1197.55334,265.415823 1198.145,262.942681 1198.145,260.15 C1198.145,257.357319 1197.55334,254.884177 1196.37,252.7305 C1195.18666,250.576823 1193.57734,248.908339 1191.542,247.725 C1189.50666,246.541661 1187.23468,245.95 1184.726,245.95 C1182.21732,245.95 1179.94534,246.541661 1177.91,247.725 C1175.87466,248.908339 1174.26534,250.576823 1173.082,252.7305 C1171.89866,254.884177 1171.307,257.357319 1171.307,260.15 C1171.307,262.942681 1171.89866,265.415823 1173.082,267.5695 C1174.26534,269.723177 1175.87466,271.391661 1177.91,272.575 C1179.94534,273.758339 1182.21732,274.35 1184.726,274.35 C1187.23468,274.35 1189.50666,273.758339 1191.542,272.575 Z M1256.306,237.5365 C1259.61935,239.027507 1262.17532,241.157486 1263.974,243.9265 C1265.77268,246.695514 1266.672,249.949648 1266.672,253.689 C1266.672,257.428352 1265.77268,260.670653 1263.974,263.416 C1262.17532,266.161347 1259.61935,268.279493 1256.306,269.7705 C1252.99265,271.261507 1249.08769,272.007 1244.591,272.007 L1235.929,272.007 L1235.929,285 L1221.871,285 L1221.871,235.3 L1244.591,235.3 C1249.08769,235.3 1252.99265,236.045493 1256.306,237.5365 Z M1250.271,259.0495 C1251.73834,257.79516 1252.472,256.008345 1252.472,253.689 C1252.472,251.369655 1251.73834,249.571006 1250.271,248.293 C1248.80366,247.014994 1246.62635,246.376 1243.739,246.376 L1235.929,246.376 L1235.929,260.931 L1243.739,260.931 C1246.62635,260.931 1248.80366,260.30384 1250.271,259.0495 Z" id="Кровля-Фасад-Забор" fill="#000000"></path>
        </g>
    </g>
</svg>